Flip_Flop_D/simulation/qsim/Flip_Flop_D.msim.vcd
$comment
	File created using the following command:
		vcd file Flip_Flop_D.msim.vcd -direction
$end
$date
	Mon May 10 19:50:59 2021
$end
$version
	ModelSim Version 2020.1
$end
$timescale
	1ps
$end

$scope module flip_flop_serie_vhd_vec_tst $end
$var wire 1 ! clock $end
$var wire 1 " D $end
$var wire 1 # Q $end

$scope module i1 $end
$var wire 1 $ gnd $end
$var wire 1 % vcc $end
$var wire 1 & unknown $end
$var wire 1 ' devoe $end
$var wire 1 ( devclrn $end
$var wire 1 ) devpor $end
$var wire 1 * ww_devoe $end
$var wire 1 + ww_devclrn $end
$var wire 1 , ww_devpor $end
$var wire 1 - ww_clock $end
$var wire 1 . ww_D $end
$var wire 1 / ww_Q $end
$var wire 1 0 \Q~output_o\ $end
$var wire 1 1 \clock~input_o\ $end
$var wire 1 2 \D~input_o\ $end
$var wire 1 3 \FF2|Q~q\ $end
$var wire 1 4 \FF1|Q~q\ $end
$var wire 1 5 \FF0|Q~q\ $end
$upscope $end
$upscope $end
$enddefinitions $end
#0
$dumpvars
0!
0"
0#
0$
1%
x&
1'
1(
1)
1*
1+
1,
0-
0.
0/
00
01
02
03
04
05
$end
#5000
1!
1-
11
#10000
0!
0-
01
#15000
1!
1-
11
#20000
0!
0-
01
#25000
1!
1-
11
#30000
0!
0-
01
#35000
1!
1-
11
#37500
1"
1.
12
#40000
0!
0-
01
#45000
1!
1-
11
13
#50000
0!
0-
01
#55000
1!
1-
11
14
#60000
0!
0-
01
#65000
1!
1-
11
15
10
1/
1#
#70000
0!
0-
01
#75000
1!
0"
1-
0.
02
11
#80000
0!
0-
01
#85000
1!
1-
11
03
#90000
0!
0-
01
#95000
1!
1-
11
04
#100000
0!
0-
01
#105000
1!
1-
11
05
00
0/
0#
#110000
0!
0-
01
#112500
1"
1.
12
#115000
1!
1-
11
13
#120000
0!
0-
01
#125000
1!
1-
11
14
#130000
0!
0-
01
#135000
1!
1-
11
15
10
1/
1#
#140000
0!
0-
01
#145000
1!
1-
11
#150000
0!
0"
0-
0.
02
01
#155000
1!
1-
11
03
#160000
0!
0-
01
#165000
1!
1-
11
04
#170000
0!
0-
01
#175000
1!
1-
11
05
00
0/
0#
#180000
0!
0-
01
#185000
1!
1-
11
#187500
1"
1.
12
#190000
0!
0-
01
#195000
1!
1-
11
13
#200000
0!
0-
01
#205000
1!
1-
11
14
#210000
0!
0-
01
#215000
1!
1-
11
15
10
1/
1#
#220000
0!
0-
01
#225000
1!
0"
1-
0.
02
11
#230000
0!
0-
01
#235000
1!
1-
11
03
#240000
0!
0-
01
#245000
1!
1-
11
04
#250000
0!
0-
01
#255000
1!
1-
11
05
00
0/
0#
#260000
0!
0-
01
#262500
1"
1.
12
#265000
1!
1-
11
13
#270000
0!
0-
01
#275000
1!
1-
11
14
#280000
0!
0-
01
#285000
1!
1-
11
15
10
1/
1#
#290000
0!
0-
01
#295000
1!
1-
11
#300000
0!
0"
0-
0.
02
01
#305000
1!
1-
11
03
#310000
0!
0-
01
#315000
1!
1-
11
04
#320000
0!
0-
01
#325000
1!
1-
11
05
00
0/
0#
#330000
0!
0-
01
#335000
1!
1-
11
#337500
1"
1.
12
#340000
0!
0-
01
#345000
1!
1-
11
13
#350000
0!
0-
01
#355000
1!
1-
11
14
#360000
0!
0-
01
#365000
1!
1-
11
15
10
1/
1#
#370000
0!
0-
01
#375000
1!
0"
1-
0.
02
11
#380000
0!
0-
01
#385000
1!
1-
11
03
#390000
0!
0-
01
#395000
1!
1-
11
04
#400000
0!
0-
01
#405000
1!
1-
11
05
00
0/
0#
#410000
0!
0-
01
#412500
1"
1.
12
#415000
1!
1-
11
13
#420000
0!
0-
01
#425000
1!
1-
11
14
#430000
0!
0-
01
#435000
1!
1-
11
15
10
1/
1#
#440000
0!
0-
01
#445000
1!
1-
11
#450000
0!
0"
0-
0.
02
01
#455000
1!
1-
11
03
#460000
0!
0-
01
#465000
1!
1-
11
04
#470000
0!
0-
01
#475000
1!
1-
11
05
00
0/
0#
#480000
0!
0-
01
#485000
1!
1-
11
#487500
1"
1.
12
#490000
0!
0-
01
#495000
1!
1-
11
13
#500000
0!
0-
01
#505000
1!
1-
11
14
#510000
0!
0-
01
#515000
1!
1-
11
15
10
1/
1#
#520000
0!
0-
01
#525000
1!
0"
1-
0.
02
11
#530000
0!
0-
01
#535000
1!
1-
11
03
#540000
0!
0-
01
#545000
1!
1-
11
04
#550000
0!
0-
01
#555000
1!
1-
11
05
00
0/
0#
#560000
0!
0-
01
#562500
1"
1.
12
#565000
1!
1-
11
13
#570000
0!
0-
01
#575000
1!
1-
11
14
#580000
0!
0-
01
#585000
1!
1-
11
15
10
1/
1#
#590000
0!
0-
01
#595000
1!
1-
11
#600000
0!
0"
0-
0.
02
01
#605000
1!
1-
11
03
#610000
0!
0-
01
#615000
1!
1-
11
04
#620000
0!
0-
01
#625000
1!
1-
11
05
00
0/
0#
#630000
0!
0-
01
#635000
1!
1-
11
#637500
1"
1.
12
#640000
0!
0-
01
#645000
1!
1-
11
13
#650000
0!
0-
01
#655000
1!
1-
11
14
#660000
0!
0-
01
#665000
1!
1-
11
15
10
1/
1#
#670000
0!
0-
01
#675000
1!
0"
1-
0.
02
11
#680000
0!
0-
01
#685000
1!
1-
11
03
#690000
0!
0-
01
#695000
1!
1-
11
04
#700000
0!
0-
01
#705000
1!
1-
11
05
00
0/
0#
#710000
0!
0-
01
#712500
1"
1.
12
#715000
1!
1-
11
13
#720000
0!
0-
01
#725000
1!
1-
11
14
#730000
0!
0-
01
#735000
1!
1-
11
15
10
1/
1#
#740000
0!
0-
01
#745000
1!
1-
11
#750000
0!
0"
0-
0.
02
01
#755000
1!
1-
11
03
#760000
0!
0-
01
#765000
1!
1-
11
04
#770000
0!
0-
01
#775000
1!
1-
11
05
00
0/
0#
#780000
0!
0-
01
#785000
1!
1-
11
#787500
1"
1.
12
#790000
0!
0-
01
#795000
1!
1-
11
13
#800000
0!
0-
01
#805000
1!
1-
11
14
#810000
0!
0-
01
#815000
1!
1-
11
15
10
1/
1#
#820000
0!
0-
01
#825000
1!
0"
1-
0.
02
11
#830000
0!
0-
01
#835000
1!
1-
11
03
#840000
0!
0-
01
#845000
1!
1-
11
04
#850000
0!
0-
01
#855000
1!
1-
11
05
00
0/
0#
#860000
0!
0-
01
#862500
1"
1.
12
#865000
1!
1-
11
13
#870000
0!
0-
01
#875000
1!
1-
11
14
#880000
0!
0-
01
#885000
1!
1-
11
15
10
1/
1#
#890000
0!
0-
01
#895000
1!
1-
11
#900000
0!
0"
0-
0.
02
01
#905000
1!
1-
11
03
#910000
0!
0-
01
#915000
1!
1-
11
04
#920000
0!
0-
01
#925000
1!
1-
11
05
00
0/
0#
#930000
0!
0-
01
#935000
1!
1-
11
#937500
1"
1.
12
#940000
0!
0-
01
#945000
1!
1-
11
13
#950000
0!
0-
01
#955000
1!
1-
11
14
#960000
0!
0-
01
#965000
1!
1-
11
15
10
1/
1#
#970000
0!
0-
01
#975000
1!
0"
1-
0.
02
11
#980000
0!
0-
01
#985000
1!
1-
11
03
#990000
0!
0-
01
#995000
1!
1-
11
04
