Full Adder/simulation/qsim/Full_Adder.msim.vcd
$comment
	File created using the following command:
		vcd file Full_Adder.msim.vcd -direction
$end
$date
	Wed May 12 22:07:25 2021
$end
$version
	ModelSim Version 2020.1
$end
$timescale
	1ps
$end

$scope module full_adder_vhd_vec_tst $end
$var wire 1 ! A $end
$var wire 1 " B $end
$var wire 1 # Cin $end
$var wire 1 $ Cout $end
$var wire 1 % S $end

$scope module i1 $end
$var wire 1 & gnd $end
$var wire 1 ' vcc $end
$var wire 1 ( unknown $end
$var wire 1 ) devoe $end
$var wire 1 * devclrn $end
$var wire 1 + devpor $end
$var wire 1 , ww_devoe $end
$var wire 1 - ww_devclrn $end
$var wire 1 . ww_devpor $end
$var wire 1 / ww_A $end
$var wire 1 0 ww_B $end
$var wire 1 1 ww_Cin $end
$var wire 1 2 ww_S $end
$var wire 1 3 ww_Cout $end
$var wire 1 4 \S~output_o\ $end
$var wire 1 5 \Cout~output_o\ $end
$var wire 1 6 \A~input_o\ $end
$var wire 1 7 \B~input_o\ $end
$var wire 1 8 \Cin~input_o\ $end
$var wire 1 9 \S~0_combout\ $end
$var wire 1 : \Cout~0_combout\ $end
$upscope $end
$upscope $end
$enddefinitions $end
#0
$dumpvars
0!
0"
0#
0$
0%
0&
1'
x(
1)
1*
1+
1,
1-
1.
0/
00
01
02
03
04
05
06
07
08
09
0:
$end
#6250
1#
11
18
19
14
12
1%
#12500
0#
1"
01
10
17
08
#18750
1#
11
18
09
1:
15
04
13
02
1$
0%
#25000
0#
0"
1!
01
00
1/
16
07
08
19
0:
05
14
03
12
0$
1%
#31250
1#
11
18
09
1:
15
04
13
02
1$
0%
#37500
0#
1"
01
10
17
08
#43750
1#
11
18
19
14
12
1%
#50000
0#
0"
0!
01
00
0/
06
07
08
09
0:
05
04
03
02
0$
0%
#56250
1#
11
18
19
14
12
1%
#62500
0#
1"
01
10
17
08
#68750
1#
11
18
09
1:
15
04
13
02
1$
0%
#75000
0#
0"
1!
01
00
1/
16
07
08
19
0:
05
14
03
12
0$
1%
#81250
1#
11
18
09
1:
15
04
13
02
1$
0%
#87500
0#
1"
01
10
17
08
#93750
1#
11
18
19
14
12
1%
#100000
0#
0"
0!
01
00
0/
06
07
08
09
0:
05
04
03
02
0$
0%
#106250
1#
11
18
19
14
12
1%
#112500
0#
1"
01
10
17
08
#118750
1#
11
18
09
1:
15
04
13
02
1$
0%
#125000
0#
0"
1!
01
00
1/
16
07
08
19
0:
05
14
03
12
0$
1%
#131250
1#
11
18
09
1:
15
04
13
02
1$
0%
#137500
0#
1"
01
10
17
08
#143750
1#
11
18
19
14
12
1%
#150000
0#
0"
0!
01
00
0/
06
07
08
09
0:
05
04
03
02
0$
0%
#156250
1#
11
18
19
14
12
1%
#162500
0#
1"
01
10
17
08
#168750
1#
11
18
09
1:
15
04
13
02
1$
0%
#175000
0#
0"
1!
01
00
1/
16
07
08
19
0:
05
14
03
12
0$
1%
#181250
1#
11
18
09
1:
15
04
13
02
1$
0%
#187500
0#
1"
01
10
17
08
#193750
1#
11
18
19
14
12
1%
#200000
0#
0"
0!
01
00
0/
06
07
08
09
0:
05
04
03
02
0$
0%
#206250
1#
11
18
19
14
12
1%
#212500
0#
1"
01
10
17
08
#218750
1#
11
18
09
1:
15
04
13
02
1$
0%
#225000
0#
0"
1!
01
00
1/
16
07
08
19
0:
05
14
03
12
0$
1%
#231250
1#
11
18
09
1:
15
04
13
02
1$
0%
#237500
0#
1"
01
10
17
08
#243750
1#
11
18
19
14
12
1%
#250000
0#
0"
0!
01
00
0/
06
07
08
09
0:
05
04
03
02
0$
0%
#256250
1#
11
18
19
14
12
1%
#262500
0#
1"
01
10
17
08
#268750
1#
11
18
09
1:
15
04
13
02
1$
0%
#275000
0#
0"
1!
01
00
1/
16
07
08
19
0:
05
14
03
12
0$
1%
#281250
1#
11
18
09
1:
15
04
13
02
1$
0%
#287500
0#
1"
01
10
17
08
#293750
1#
11
18
19
14
12
1%
#300000
0#
0"
0!
01
00
0/
06
07
08
09
0:
05
04
03
02
0$
0%
#306250
1#
11
18
19
14
12
1%
#312500
0#
1"
01
10
17
08
#318750
1#
11
18
09
1:
15
04
13
02
1$
0%
#325000
0#
0"
1!
01
00
1/
16
07
08
19
0:
05
14
03
12
0$
1%
#331250
1#
11
18
09
1:
15
04
13
02
1$
0%
#337500
0#
1"
01
10
17
08
#343750
1#
11
18
19
14
12
1%
#350000
0#
0"
0!
01
00
0/
06
07
08
09
0:
05
04
03
02
0$
0%
#356250
1#
11
18
19
14
12
1%
#362500
0#
1"
01
10
17
08
#368750
1#
11
18
09
1:
15
04
13
02
1$
0%
#375000
0#
0"
1!
01
00
1/
16
07
08
19
0:
05
14
03
12
0$
1%
#381250
1#
11
18
09
1:
15
04
13
02
1$
0%
#387500
0#
1"
01
10
17
08
#393750
1#
11
18
19
14
12
1%
#400000
0#
0"
0!
01
00
0/
06
07
08
09
0:
05
04
03
02
0$
0%
#406250
1#
11
18
19
14
12
1%
#412500
0#
1"
01
10
17
08
#418750
1#
11
18
09
1:
15
04
13
02
1$
0%
#425000
0#
0"
1!
01
00
1/
16
07
08
19
0:
05
14
03
12
0$
1%
#431250
1#
11
18
09
1:
15
04
13
02
1$
0%
#437500
0#
1"
01
10
17
08
#443750
1#
11
18
19
14
12
1%
#450000
0#
0"
0!
01
00
0/
06
07
08
09
0:
05
04
03
02
0$
0%
#456250
1#
11
18
19
14
12
1%
#462500
0#
1"
01
10
17
08
#468750
1#
11
18
09
1:
15
04
13
02
1$
0%
#475000
0#
0"
1!
01
00
1/
16
07
08
19
0:
05
14
03
12
0$
1%
#481250
1#
11
18
09
1:
15
04
13
02
1$
0%
#487500
0#
1"
01
10
17
08
#493750
1#
11
18
19
14
12
1%
#500000
0#
0"
0!
01
00
0/
06
07
08
09
0:
05
04
03
02
0$
0%
#506250
1#
11
18
19
14
12
1%
#512500
0#
1"
01
10
17
08
#518750
1#
11
18
09
1:
15
04
13
02
1$
0%
#525000
0#
0"
1!
01
00
1/
16
07
08
19
0:
05
14
03
12
0$
1%
#531250
1#
11
18
09
1:
15
04
13
02
1$
0%
#537500
0#
1"
01
10
17
08
#543750
1#
11
18
19
14
12
1%
#550000
0#
0"
0!
01
00
0/
06
07
08
09
0:
05
04
03
02
0$
0%
#556250
1#
11
18
19
14
12
1%
#562500
0#
1"
01
10
17
08
#568750
1#
11
18
09
1:
15
04
13
02
1$
0%
#575000
0#
0"
1!
01
00
1/
16
07
08
19
0:
05
14
03
12
0$
1%
#581250
1#
11
18
09
1:
15
04
13
02
1$
0%
#587500
0#
1"
01
10
17
08
#593750
1#
11
18
19
14
12
1%
#600000
0#
0"
0!
01
00
0/
06
07
08
09
0:
05
04
03
02
0$
0%
#606250
1#
11
18
19
14
12
1%
#612500
0#
1"
01
10
17
08
#618750
1#
11
18
09
1:
15
04
13
02
1$
0%
#625000
0#
0"
1!
01
00
1/
16
07
08
19
0:
05
14
03
12
0$
1%
#631250
1#
11
18
09
1:
15
04
13
02
1$
0%
#637500
0#
1"
01
10
17
08
#643750
1#
11
18
19
14
12
1%
#650000
0#
0"
0!
01
00
0/
06
07
08
09
0:
05
04
03
02
0$
0%
#656250
1#
11
18
19
14
12
1%
#662500
0#
1"
01
10
17
08
#668750
1#
11
18
09
1:
15
04
13
02
1$
0%
#675000
0#
0"
1!
01
00
1/
16
07
08
19
0:
05
14
03
12
0$
1%
#681250
1#
11
18
09
1:
15
04
13
02
1$
0%
#687500
0#
1"
01
10
17
08
#693750
1#
11
18
19
14
12
1%
#700000
0#
0"
0!
01
00
0/
06
07
08
09
0:
05
04
03
02
0$
0%
#706250
1#
11
18
19
14
12
1%
#712500
0#
1"
01
10
17
08
#718750
1#
11
18
09
1:
15
04
13
02
1$
0%
#725000
0#
0"
1!
01
00
1/
16
07
08
19
0:
05
14
03
12
0$
1%
#731250
1#
11
18
09
1:
15
04
13
02
1$
0%
#737500
0#
1"
01
10
17
08
#743750
1#
11
18
19
14
12
1%
#750000
0#
0"
0!
01
00
0/
06
07
08
09
0:
05
04
03
02
0$
0%
#756250
1#
11
18
19
14
12
1%
#762500
0#
1"
01
10
17
08
#768750
1#
11
18
09
1:
15
04
13
02
1$
0%
#775000
0#
0"
1!
01
00
1/
16
07
08
19
0:
05
14
03
12
0$
1%
#781250
1#
11
18
09
1:
15
04
13
02
1$
0%
#787500
0#
1"
01
10
17
08
#793750
1#
11
18
19
14
12
1%
#800000
0#
0"
0!
01
00
0/
06
07
08
09
0:
05
04
03
02
0$
0%
#806250
1#
11
18
19
14
12
1%
#812500
0#
1"
01
10
17
08
#818750
1#
11
18
09
1:
15
04
13
02
1$
0%
#825000
0#
0"
1!
01
00
1/
16
07
08
19
0:
05
14
03
12
0$
1%
#831250
1#
11
18
09
1:
15
04
13
02
1$
0%
#837500
0#
1"
01
10
17
08
#843750
1#
11
18
19
14
12
1%
#850000
0#
0"
0!
01
00
0/
06
07
08
09
0:
05
04
03
02
0$
0%
#856250
1#
11
18
19
14
12
1%
#862500
0#
1"
01
10
17
08
#868750
1#
11
18
09
1:
15
04
13
02
1$
0%
#875000
0#
0"
1!
01
00
1/
16
07
08
19
0:
05
14
03
12
0$
1%
#881250
1#
11
18
09
1:
15
04
13
02
1$
0%
#887500
0#
1"
01
10
17
08
#893750
1#
11
18
19
14
12
1%
#900000
0#
0"
0!
01
00
0/
06
07
08
09
0:
05
04
03
02
0$
0%
#906250
1#
11
18
19
14
12
1%
#912500
0#
1"
01
10
17
08
#918750
1#
11
18
09
1:
15
04
13
02
1$
0%
#925000
0#
0"
1!
01
00
1/
16
07
08
19
0:
05
14
03
12
0$
1%
#931250
1#
11
18
09
1:
15
04
13
02
1$
0%
#937500
0#
1"
01
10
17
08
#943750
1#
11
18
19
14
12
1%
#950000
0#
0"
0!
01
00
0/
06
07
08
09
0:
05
04
03
02
0$
0%
#956250
1#
11
18
19
14
12
1%
#962500
0#
1"
01
10
17
08
#968750
1#
11
18
09
1:
15
04
13
02
1$
0%
#975000
0#
0"
1!
01
00
1/
16
07
08
19
0:
05
14
03
12
0$
1%
#981250
1#
11
18
09
1:
15
04
13
02
1$
0%
#987500
0#
1"
01
10
17
08
#993750
1#
11
18
19
14
12
1%
